\relax 
\select@language{english}
\@writefile{toc}{\select@language{english}}
\@writefile{lof}{\select@language{english}}
\@writefile{lot}{\select@language{english}}
\citation{lackenby}
\citation{culprit}
\citation{tancer}
\citation{tancer}
\@writefile{toc}{\contentsline {title}{Parametrized complexity of a knot theory problem}{2}}
\@writefile{toc}{\authcount {1}}
\@writefile{toc}{\contentsline {author}{Cl\IeC {\'e}ment Legrand-Duchesne}{2}}
\@writefile{toc}{\contentsline {section}{\numberline {1}Introduction}{2}}
\newlabel{sec:Introduction}{{1}{2}}
\@writefile{toc}{\contentsline {section}{\numberline {2}Prerequisite}{3}}
\newlabel{sec:Prerequisites}{{2}{3}}
\@writefile{toc}{\contentsline {subsection}{\numberline {2.1}Knot theory}{3}}
\@writefile{lof}{\contentsline {subfigure}{\numberline {a}{\ignorespaces Type $I$ Reidemeister moves\xspace  \relax }}{4}}
\providecommand*\caption@xref[2]{\@setref\relax\@undefined{#1}}
\newlabel{fig:RM1}{{1a}{4}}
\newlabel{sub@fig:RM1}{{a}{4}}
\@writefile{lof}{\contentsline {subfigure}{\numberline {b}{\ignorespaces Type $II$ Reidemeister moves\xspace  \relax }}{4}}
\newlabel{fig:RM2}{{1b}{4}}
\newlabel{sub@fig:RM2}{{b}{4}}
\@writefile{lof}{\contentsline {subfigure}{\numberline {c}{\ignorespaces Type $III$ Reidemeister move\xspace  \relax }}{4}}
\newlabel{fig:RM3}{{1c}{4}}
\newlabel{sub@fig:RM3}{{c}{4}}
\@writefile{lof}{\contentsline {figure}{\numberline {2}{\ignorespaces The different Reidemeister moves\xspace  }}{4}}
\newlabel{fig:RM}{{2}{4}}
\@writefile{toc}{\contentsline {subsection}{\numberline {2.2}Parametrized complexity}{5}}
\@writefile{tdo}{\contentsline {todo}{cite}{5}}
\pgfsyspdfmark {pgfid1}{30455555}{29978182}
\pgfsyspdfmark {pgfid4}{35267774}{29990470}
\pgfsyspdfmark {pgfid5}{38200510}{29766556}
\@writefile{toc}{\contentsline {section}{\numberline {3}Belonging to \emph  {XP}}{5}}
\newlabel{sec:XP}{{3}{5}}
\@writefile{lof}{\contentsline {figure}{\numberline {3}{\ignorespaces Inclusions of the parametrized complexity classes}}{6}}
\newlabel{fig:param}{{3}{6}}
\@writefile{toc}{\contentsline {subsection}{\numberline {3.1}Preliminary results on the feasibility of Reidemeister moves\xspace  }{6}}
\citation{tancer}
\@writefile{toc}{\contentsline {subsubsection}{Feasibility of type $I^-$, $II^-$ and $III$ Reidemeister moves\xspace  }{7}}
\newlabel{2closeness}{{1}{7}}
\@writefile{lof}{\contentsline {subfigure}{\numberline {a}{\ignorespaces $c_i$ and $c_j$ are 3-close in respect to $\{a, c, d\}$\relax }}{7}}
\newlabel{fig:kclose1}{{4a}{7}}
\newlabel{sub@fig:kclose1}{{a}{7}}
\@writefile{lof}{\contentsline {subfigure}{\numberline {b}{\ignorespaces The choice of $\alpha $ does not respect the third condition of the $k$-closeness definition\relax }}{7}}
\newlabel{fig:kclose2}{{4b}{7}}
\newlabel{sub@fig:kclose2}{{b}{7}}
\@writefile{lof}{\contentsline {figure}{\numberline {5}{\ignorespaces Examples illustrating the $k$-closeness property}}{7}}
\newlabel{fig:kclose}{{5}{7}}
\newlabel{feasible2-}{{31}{7}}
\newlabel{cond1}{{1}{7}}
\newlabel{cond2}{{2}{7}}
\@writefile{lof}{\contentsline {subfigure}{\numberline {a}{\ignorespaces The only configuration verifying the two conditions of Lemma \ref  {feasible2-}\relax }}{8}}
\newlabel{fig:0close1}{{6a}{8}}
\newlabel{sub@fig:0close1}{{a}{8}}
\@writefile{lof}{\contentsline {subfigure}{\numberline {b}{\ignorespaces One configuration verifying the 0-closeness, but not the second condition of Lemma \ref  {feasible2-}\relax }}{8}}
\newlabel{fig:0close2}{{6b}{8}}
\newlabel{sub@fig:0close2}{{b}{8}}
\@writefile{lof}{\contentsline {subfigure}{\numberline {c}{\ignorespaces One configuration verifying the 0-closeness, but not the second condition of Lemma \ref  {feasible2-}\relax }}{8}}
\newlabel{fig:Oclose3}{{6c}{8}}
\newlabel{sub@fig:Oclose3}{{c}{8}}
\@writefile{lof}{\contentsline {figure}{\numberline {7}{\ignorespaces Outline of the different knots in which $c_i$ and $c_j$ are 0-close.}}{8}}
\newlabel{fig:0close}{{7}{8}}
\newlabel{2closeresist}{{32}{8}}
\newlabel{resistance2-}{{33}{8}}
\citation{*}
\bibstyle{splncs04}
\bibdata{../biblio}
\bibcite{knot_book}{1}
\bibcite{dynnikov}{2}
\bibcite{culprit}{3}
\bibcite{lackenby}{4}
\bibcite{tancer}{5}
\@writefile{tdo}{\contentsline {todo}{proof}{9}}
\pgfsyspdfmark {pgfid6}{24781456}{40431069}
\pgfsyspdfmark {pgfid9}{35267774}{40443357}
\pgfsyspdfmark {pgfid10}{38200510}{40219443}
\@writefile{toc}{\contentsline {section}{\numberline {4}\emph  {W[P]}-hardness}{9}}
\newlabel{sec:hardness}{{4}{9}}
\@writefile{toc}{\contentsline {section}{\numberline {5}Conclusion}{9}}
\newlabel{sec:Conclusion}{{5}{9}}
\newlabel{sec:Acknowledgments}{{5}{9}}
